<?xml version="1.0" encoding="UTF-8" standalone="no"?>
<!-- Created with Inkscape (http://www.inkscape.org/) -->

<svg
   xmlns:dc="http://purl.org/dc/elements/1.1/"
   xmlns:cc="http://creativecommons.org/ns#"
   xmlns:rdf="http://www.w3.org/1999/02/22-rdf-syntax-ns#"
   xmlns:svg="http://www.w3.org/2000/svg"
   xmlns="http://www.w3.org/2000/svg"
   xmlns:sodipodi="http://sodipodi.sourceforge.net/DTD/sodipodi-0.dtd"
   xmlns:inkscape="http://www.inkscape.org/namespaces/inkscape"
   width="14"
   height="14"
   viewBox="0 0 3.7041665 3.7041668"
   version="1.1"
   id="svg8"
   inkscape:version="0.92.4 5da689c313, 2019-01-14"
   sodipodi:docname="fairh.svg">
  <defs
     id="defs2" />
  <sodipodi:namedview
     id="base"
     pagecolor="#ffffff"
     bordercolor="#666666"
     borderopacity="1.0"
     inkscape:pageopacity="0.0"
     inkscape:pageshadow="2"
     inkscape:zoom="44.8"
     inkscape:cx="10.911438"
     inkscape:cy="2.8945159"
     inkscape:document-units="mm"
     inkscape:current-layer="layer1"
     showgrid="true"
     units="px"
     inkscape:window-width="1884"
     inkscape:window-height="1375"
     inkscape:window-x="2580"
     inkscape:window-y="43"
     inkscape:window-maximized="0">
    <inkscape:grid
       type="xygrid"
       id="grid4518" />
  </sodipodi:namedview>
  <metadata
     id="metadata5">
    <rdf:RDF>
      <cc:Work
         rdf:about="">
        <dc:format>image/svg+xml</dc:format>
        <dc:type
           rdf:resource="http://purl.org/dc/dcmitype/StillImage" />
        <dc:title></dc:title>
      </cc:Work>
    </rdf:RDF>
  </metadata>
  <g
     inkscape:label="Ebene 1"
     inkscape:groupmode="layer"
     id="layer1"
     transform="translate(0,-293.29582)">
    <g
       id="g4859"
       transform="rotate(90,1.8520784,295.1479)">
      <rect
         transform="rotate(90)"
         y="-1.5875"
         x="294.61874"
         height="1.5874903"
         width="1.0583333"
         id="rect4539-7"
         style="fill:#000000;fill-opacity:1;stroke:none;stroke-width:0.43274188;stroke-linecap:round;stroke-miterlimit:4;stroke-dasharray:none;stroke-opacity:1" />
      <rect
         transform="rotate(90)"
         y="-1.5874903"
         x="295.94165"
         height="1.5874903"
         width="1.0583333"
         id="rect4539-7-2"
         style="fill:#000000;fill-opacity:1;stroke:none;stroke-width:0.43274188;stroke-linecap:round;stroke-miterlimit:4;stroke-dasharray:none;stroke-opacity:1" />
      <rect
         transform="rotate(90)"
         y="-3.7041569"
         x="295.94165"
         height="1.5874903"
         width="1.0583333"
         id="rect4539-7-7"
         style="fill:#000000;fill-opacity:1;stroke:none;stroke-width:0.43274188;stroke-linecap:round;stroke-miterlimit:4;stroke-dasharray:none;stroke-opacity:1" />
      <rect
         transform="rotate(90)"
         y="-3.7041569"
         x="294.61874"
         height="1.5874903"
         width="1.0583333"
         id="rect4539-7-0"
         style="fill:#000000;fill-opacity:1;stroke:none;stroke-width:0.43274188;stroke-linecap:round;stroke-miterlimit:4;stroke-dasharray:none;stroke-opacity:1" />
      <rect
         transform="rotate(90)"
         y="-3.7041569"
         x="293.29581"
         height="1.5874903"
         width="1.0583333"
         id="rect4539-7-9"
         style="fill:#000000;fill-opacity:1;stroke:none;stroke-width:0.43274188;stroke-linecap:round;stroke-miterlimit:4;stroke-dasharray:none;stroke-opacity:1" />
      <rect
         transform="rotate(90)"
         y="-1.5874903"
         x="293.29584"
         height="1.5874903"
         width="1.0583333"
         id="rect4539-7-3"
         style="fill:#000000;fill-opacity:1;stroke:none;stroke-width:0.43274188;stroke-linecap:round;stroke-miterlimit:4;stroke-dasharray:none;stroke-opacity:1" />
    </g>
  </g>
</svg>
